{
  "tinyhttp.js": {
    "src": "src/browser.js",
    "dest": "dist/tinyhttp.js"
  },
  "options": {
    "transform": [["babelify", {"presets": ["es2015"]}]],
    "browserifyOptions" : {"paths": ["./src"]}
  }
}
